[
    {
        "MaxIntelligence": 9,
        "MaxLife": 7,
        "MaxStrength": 7,
        "MinIntelligence": 7,
        "MinLife": 5,
        "MinStrength": 3,
        "Role": "Nurse",
        "Terror": 0,
        "Type": "Person"
    },
    {
        "MaxIntelligence": 8,
        "MaxLife": 7,
        "MaxStrength": 6,
        "MinIntelligence": 6,
        "MinLife": 5,
        "MinStrength": 2,
        "Role": "Reporter",
        "Terror": 0,
        "Type": "Person"
    },
    {
        "MaxIntelligence": 10,
        "MaxLife": 6,
        "MaxStrength": 5,
        "MinIntelligence": 8,
        "MinLife": 4,
        "MinStrength": 1,
        "Role": "Professor",
        "Terror": 0,
        "Type": "Person"
    },
    {
        "Disquiet": 6,
        "MaxIntelligence": 5,
        "MaxLife": 4,
        "MaxStrength": 6,
        "MinIntelligence": 5,
        "MinLife": 4,
        "MinStrength": 6,
        "Role": "Ghoul",
        "Type": "Creature",
        "Unnatural": true
    },
    {
        "Disquiet": 2,
        "MaxIntelligence": 5,
        "MaxLife": 4,
        "MaxStrength": 6,
        "MinIntelligence": 5,
        "MinLife": 4,
        "MinStrength": 6,
        "Role": "Wolf",
        "Type": "Creature",
        "Unnatural": false
    },
    {
        "Disquiet": 10,
        "MaxIntelligence": 2,
        "MaxLife": 8,
        "MaxStrength": 7,
        "MinIntelligence": 2,
        "MinLife": 8,
        "MinStrength": 7,
        "Role": "Chthonian",
        "Traumatism": 1,
        "Type": "Eldritch Horror",
        "Unnatural": true
    },
    {
        "Disquiet": 10,
        "MaxIntelligence": 6,
        "MaxLife": 8,
        "MaxStrength": 9,
        "MinIntelligence": 6,
        "MinLife": 8,
        "MinStrength": 9,
        "Role": "Shoggoth",
        "Traumatism": 2,
        "Type": "Eldritch Horror",
        "Unnatural": true
    },
    {
        "MaxIntelligence": 0,
        "MaxLife": 1,
        "MaxStrength": 1,
        "MinIntelligence": 0,
        "MinLife": 1,
        "MinStrength": 1,
        "Role": "Lil-Bitch",
        "Terror": 0,
        "Type": "Person"
    },
    {
        "MaxIntelligence": 10,
        "MaxLife": 10,
        "MaxStrength": 10,
        "MinIntelligence": 6,
        "MinLife": 5,
        "MinStrength": 6,
        "Role": "Hora",
        "Terror": 0,
        "Type": "Person"
    }
]
